{
    "testTimeout": 300000,
    "suites": [
        "srate-indicator/test/index.html"
    ],
    "plugins": {
        "xunit-reporter": {
            "output": "./test-results/testfile.xml"
        },
        "istanbub": {
            "dir": "./coverage",
            "reporters": [
                "text-summary",
                "lcov"
            ],
            "include": [
                "**/*.html"
            ],
            "exclude": [
                "**/test/**"
            ],
            "thresholds": {
                "global": {
                    "statements": 60,
                    "branches": 50,
                    "functions": 55,
                    "lines": 60
                }
            }
        },
        "local": {
            "skipSeleniumInstall": true,
            "disabled": false,
            "browserOptions": {
                "chrome": [
                    "start-maximized",
                    "headless",
                    "disable-gpu",
                    "no-sandbox"
                ]
            }
        }
    },
    "activeBrowsers": [
        {
            "url": "http://localhost:4444/wd/hub",
            "browserName": "chrome"
        }
    ]
}